…
# look at individual percentages
sasldn_bw %>% 
  dplyr::group_by(month_year, officer_defined_ethnicity) %>% 
  dplyr::summarise(n = n()) %>% 
  mutate(freq = n / sum(n))

## # A tibble: 60 x 4
## # Groups:   month_year [30]
##    month_year officer_defined_ethnicity     n  freq
##    <fct>      <chr>                     <int> <dbl>
##  1 2018-Apr   Black                      4093 0.555
##  2 2018-Apr   White                      3280 0.445
##  3 2018-May   Black                      4269 0.573
##  4 2018-May   White                      3183 0.427
##  5 2018-Jun   Black                      3539 0.560
##  6 2018-Jun   White                      2785 0.440
##  7 2018-Jul   Black                      3334 0.581
##  8 2018-Jul   White                      2406 0.419
##  9 2018-Aug   Black                      3939 0.574
## 10 2018-Aug   White                      2919 0.426
## # … with 50 more rows
…
