Ongoing projects · Marie Cordes's Portfolio Website
…
First, we estimate the population proportion of Snapchat or Instagram users in 2016.

We begin by creating a new variable, snap_insta that is Yes if the respondent reported using any of Snapchat (snapchat) or Instagram (instagrm), and No if not. If the recorded value was NA for both of these questions, the value in the new variable should also be NA.

gss_new <- gss %>% 
             mutate(snap_insta = case_when(snapchat == "Yes"~"Yes", 
                                           instagrm == "Yes"~"Yes",
                                           snapchat == "NA"~"NA",
                                           instagrm == "NA"~"NA",
                                            TRUE ~ "No"
                                          ))

gss_new

## # A tibble: 2,867 x 8
##    emailmin emailhr snapchat instagrm twitter sex    degree         snap_insta
##    <chr>    <chr>   <chr>    <chr>    <chr>   <chr>  <chr>          <chr>     
##  1 0        12      NA       NA       NA      Male   Bachelor       NA        
##  2 30       0       No       No       No      Male   High school    No        
##  3 NA       NA      No       No       No      Male   Bachelor       No        
##  4 10       0       NA       NA       NA      Female High school    NA        
##  5 NA       NA      Yes      Yes      No      Female Graduate       Yes       
##  6 0        2       No       Yes      No      Female Junior college Yes       
##  7 0        40      NA       NA       NA      Male   High school    NA        
##  8 NA       NA      Yes      Yes      No      Female High school    Yes       
##  9 0        0       NA       NA       NA      Male   High school    NA        
## 10 NA       NA      No       No       No      Male   Junior college No        
## # … with 2,857 more rows
…
#order education levels
degree_fo <-  c("Lt high school", "High school", "Junior college", "Bachelor", "Graduate")

Next, we create a new variable, bachelor_graduate that is Yes if the respondent has either a Bachelor or Graduate degree. As before, if the recorded value for either was NA, the value in the new variable should also be NA. For all other degree levels, the new variable is No.

gss_new2 <- gss %>% 
             mutate(bachelor_graduate = case_when(degree == "Bachelor"~"Yes", 
                                                  degree == "Graduate"~"Yes",
                                                  degree == "NA"~"NA",
                                                  TRUE ~ "No"
                                          ))

gss_new2

## # A tibble: 2,867 x 8
##    emailmin emailhr snapchat instagrm twitter sex    degree     bachelor_gradua…
##    <chr>    <chr>   <chr>    <chr>    <chr>   <chr>  <chr>      <chr>           
##  1 0        12      NA       NA       NA      Male   Bachelor   Yes             
##  2 30       0       No       No       No      Male   High scho… No              
##  3 NA       NA      No       No       No      Male   Bachelor   Yes             
##  4 10       0       NA       NA       NA      Female High scho… No              
##  5 NA       NA      Yes      Yes      No      Female Graduate   Yes             
##  6 0        2       No       Yes      No      Female Junior co… No              
##  7 0        40      NA       NA       NA      Male   High scho… No              
##  8 NA       NA      Yes      Yes      No      Female High scho… No              
##  9 0        0       NA       NA       NA      Male   High scho… No              
## 10 NA       NA      No       No       No      Male   Junior co… No              
## # … with 2,857 more rows
…
