Gapminder Analysis · Marie Cordes's Portfolio Website
…
#create  new data set with time periods
ay_no_na <- no_na %>% 
  filter(date == "1970"| 
            date == "1980"| 
            date == "1990"| 
            date == "2000"| 
            date == "2010"| 
            date == "2016") 

ay_no_na

## # A tibble: 480 x 8
##    iso2c iso3c country  date NY.GDP.PCAP.KD SE.PRM.NENR SH.DYN.MORT
##    <chr> <chr> <chr>   <dbl>          <dbl>       <dbl>       <dbl>
##  1 AO    AGO   Angola   2010          3588.        75.8       120. 
##  2 AL    ALB   Albania  2000          2245.        95.4        27.2
##  3 AL    ALB   Albania  2010          4094.        86.0        13.2
##  4 AL    ALB   Albania  2016          4682.        94.1         9.4
##  5 AE    ARE   United…  1980        116233.        76.2        35  
##  6 AE    ARE   United…  1990         68781.        96.9        16.6
##  7 AE    ARE   United…  2016         41045.        94.6         7.8
##  8 AR    ARG   Argent…  1970          7084.        95.1        71.8
##  9 AR    ARG   Argent…  2000          8224.        98.9        19.6
## 10 AR    ARG   Argent…  2010         10386.        98.7        14.4
## # … with 470 more rows, and 1 more variable: SP.DYN.TFRT.IN <dbl>
…
